{
	"DISCORD_PERMISSION_MANAGE_MESSAGES": "Gérer les Messages",
	"MESSAGEABLE_EMPTY_MESSAGE": "J'ai essayé d'envoyer un message vide.",
	"MESSAGEABLE_SEND_FAIL": "Oups! Le message de sortie fait plus de 2000 caractères. Voici un fichier avec son contenu:",
	"MESSAGEABLE_UPDATE_FAIL": "Oups! Le message de sortie fait plus de 2000 caractères.",
	"PAGINATION_ALTERNATIVE_CLOSE": "Tapez `x` pour arrêter la pagination.",
	"PAGINATION_ALTERNATIVE_NAVIGATION": "Tapez `<` et `>` pour changer de page. Tapez `p<numero>` pour voir une page (ex. `p10`).",
	"PAGINATION_NO_ITEMS": "Il n'y a rien d'autre ici que nous, les poules...",
	"PAGINATION_NO_MANAGE_MESSAGES": "Il semblerait que je ne possède pas la permission Discord `{permission}`. Je supprimerai les messages de changement de page automatiquement si cette permission m'est donnée.",
	"PAGINATION_PAGE": "Page {numPage, number}/{numMax, number}"
}