{
	"INPUT_PARSER_ERROR_CUSTOM": "{type, select, arg {Argument} other {Option}} `{name}` scheiterte an der Eingabeüberprüfung.",
	"INPUT_PARSER_ERROR_EQUALS": "{type, select, arg {Argument} other {Option}} `{name}` muss `{value}` entsprechen!",
	"INPUT_PARSER_ERROR_ENUM": "{type, select, arg {Argument} other {Option}} `{name}` muss einem der folgenden Einträge entsprechen: `{enum}`.",
	"INPUT_PARSER_ERROR_NUMBER": "{type, select, arg {Argument} other{Option}} `{name}` muss eine Zahl sein!",
	"INPUT_PARSER_ERROR_BOOLEAN": "{type, select, arg {Argument} other {Option}} `{name}` muss ein Boolean sein (true/false)!",
	"INPUT_PARSER_ERROR_DM": "Bitte überprüfe deinen Befehl und versuche es erneut. Wegen Limitationen bei Direktnachrichten kann ich leider keine Vorschläge machen.",
	"INPUT_PARSER_HEADER_DEFAULT": "Bitte wähle einen der folgenden Einträge für `{name}` aus."
}