{
	"AYANA_VERSION": "",
	"AYANA_CORE_VERSION": "",
	"INFO_CONTAINER": "",
	"INFO_MEMORY": "",
	"INFO_SERVER_REGION": "",
	"INFO_SERVERS": "",
	"INFO_SHARD": "",
	"INFO_STREAMS": "",
	"INFO_UPTIME": "",
	"INFO_USERS": "",
	"SEKITSUI_CLIENT_ID": "",
	"SEKITSUI_PING": "",
	"SEKITSUI_VERSION": "",
	"HEADER_SELECT_ACTION": ""
}