{
	"DISCORD_PERMISSION_MANAGE_MESSAGES": "",
	"MESSAGEABLE_EMPTY_MESSAGE": "",
	"MESSAGEABLE_SEND_FAIL": "",
	"MESSAGEABLE_UPDATE_FAIL": "",
	"PAGINATION_ALTERNATIVE_CLOSE": "",
	"PAGINATION_ALTERNATIVE_NAVIGATION": "",
	"PAGINATION_NO_ITEMS": "",
	"PAGINATION_NO_MANAGE_MESSAGES": "",
	"PAGINATION_PAGE": ""
}