{
	"AYANA_VERSION": "Ayana Version",
	"AYANA_CORE_VERSION": "Ayana Core Version",
	"INFO_CONTAINER": "Container",
	"INFO_MEMORY": "RAM",
	"INFO_SERVER_REGION": "Server Region",
	"INFO_SERVERS": "Servers",
	"INFO_SHARD": "Shard",
	"INFO_STREAMS": "Streams",
	"INFO_UPTIME": "Uptime",
	"INFO_USERS": "Users",
	"SEKITSUI_CLIENT_ID": "Sekitsui Client ID",
	"SEKITSUI_PING": "Sekitsui Ping",
	"SEKITSUI_VERSION": "Sekitsui Version",
	"HEADER_SELECT_ACTION": "What would you like todo?"
}
