{
	"DISCORD_PERMISSION_MANAGE_MESSAGES": "Gestionar mensajes",
	"MESSAGEABLE_EMPTY_MESSAGE": "Traté de enviar un mensaje vacío.",
	"MESSAGEABLE_SEND_FAIL": "¡Ups! La salida se hizo más grande que 2000 caracteres. Aquí hay un archivo de texto con el contenido:",
	"MESSAGEABLE_UPDATE_FAIL": "¡Ups! La salida se hizo más grande que 2000 caracteres.",
	"PAGINATION_ALTERNATIVE_CLOSE": "Escriba `x` para cerrar el menú de páginas.",
	"PAGINATION_ALTERNATIVE_NAVIGATION": "Escriba `<` o `>`para cambiar la página. Escriba `p<Number>` para saltar de página (ej. `p10`).",
	"PAGINATION_NO_ITEMS": "Quién más estaría aquí...",
	"PAGINATION_NO_MANAGE_MESSAGES": "No parece que tengas el permiso Discord `{permission}`. Voy a borrar automáticamente los mensajes de cambio de página si se proporciona este permiso.",
	"PAGINATION_PAGE": "Página {numPage, number}/{numMax, number}"
}