{
	"DISCORD_PERMISSION_MANAGE_MESSAGES": "Mengelola Pesan",
	"MESSAGEABLE_EMPTY_MESSAGE": "Saya mencoba mengirim pesan kosong.",
	"MESSAGEABLE_SEND_FAIL": "Ups! Outputnya menjadi lebih besar dari 2000 karakter. Ini file teks dengan konten:",
	"MESSAGEABLE_UPDATE_FAIL": "Ups! Outputnya menjadi lebih besar dari 2000 karakter.",
	"PAGINATION_ALTERNATIVE_CLOSE": "Ketik `x` untuk menutup navigasi halaman.",
	"PAGINATION_ALTERNATIVE_NAVIGATION": "Ketik `<` atau `>` untuk mengganti halaman. Ketik `p<angka>` untuk melompat ke halaman (ex.` P10`).",
	"PAGINATION_NO_ITEMS": "Tidak ada selain kami, ayam di sini...",
	"PAGINATION_NO_MANAGE_MESSAGES": "Sepertinya saya tidak memiliki izin `{permission}` Discord. Saya akan otomatis menghapus pesan peralihan halaman jika izin ini diberikan.",
	"PAGINATION_PAGE": "Halaman {numPage, number}/{numMax, number}"
}