{
	"DISCORD_PERMISSION_MANAGE_MESSAGES": "Gerir Mensagens",
	"MESSAGEABLE_EMPTY_MESSAGE": "Tentei enviar uma mensagem vazia.",
	"MESSAGEABLE_SEND_FAIL": "Ups! A produção ficou maior que 2000 caracteres. Aqui está um ficheiro de texto com o conteúdo:",
	"MESSAGEABLE_UPDATE_FAIL": "Ups! A produção ficou maior que 2000 caracteres.",
	"PAGINATION_ALTERNATIVE_CLOSE": "Digita `x` para fechar a paginação.",
	"PAGINATION_ALTERNATIVE_NAVIGATION": "Digita `<` ou `>` para trocar de página. Digita `p<Número>` para saltar para uma página (ex. `p10`).",
	"PAGINATION_NO_ITEMS": "Nada aqui porém só nós galinhas...",
	"PAGINATION_NO_MANAGE_MESSAGES": "Não me parece que tenha a permissão `{permission}` do Discord. Irei apagar automaticamente mensagens de troca-páginas se esta permissão for dada.",
	"PAGINATION_PAGE": "Página {numPage, number}/{numMax, number}"
}