{
	"FUN_PAID_RESPECTS": "**{username}** gav deres respekt.",
	"FUN_PAID_RESPECTS_FOR": "**{username}** gav deres respekt til **{for}**.",
	"FUN_RESPECTS_FOOTER": "{numToday, number} i dag, {numAll, number} i alt.",
	"FUN_RESPECTS_STATS": "`{numToday, number}` respekt givet i dag, `{numAll, number}` i alt."
}