{
	"DISCORD_PERMISSION_MANAGE_MESSAGES": "Керування повідомленнями",
	"MESSAGEABLE_EMPTY_MESSAGE": "Я намагалася відправити пусте повідомлення.",
	"MESSAGEABLE_SEND_FAIL": "Йой! Повідомлення перевищило 2000 символів, тому воно було записане у текстовий файл:",
	"MESSAGEABLE_UPDATE_FAIL": "Йой! Повідомлення перевищило 2000 символів.",
	"PAGINATION_ALTERNATIVE_CLOSE": "Наберіть `x`, щоб закрити сторінкову навігацію.",
	"PAGINATION_ALTERNATIVE_NAVIGATION": "Наберіть `<` чи `>` щоб перемкнути сторінку. Уведіть `p<Number>` щоб перейти на сторінку (напр., `p10`).",
	"PAGINATION_NO_ITEMS": "Тут анічогісінько немає...",
	"PAGINATION_NO_MANAGE_MESSAGES": "Схоже, я не маю дозволу `{permission}` на сервері. Я автоматично видалятиму повідомлення зі сторінковою навігацією, якщо цей дозвіл буде надано.",
	"PAGINATION_PAGE": "Сторінка {numPage, number}/{numMax, number}"
}