{
	"AYANA_VERSION": "Ayanaバージョン",
	"AYANA_CORE_VERSION": "Ayana Coreバージョン",
	"INFO_CONTAINER": "コンテナ",
	"INFO_MEMORY": "RAM",
	"INFO_SERVER_REGION": "サーバーリージョン",
	"INFO_SERVERS": "サーバー",
	"INFO_SHARD": "シャード",
	"INFO_STREAMS": "ストリーム",
	"INFO_UPTIME": "稼働時間",
	"INFO_USERS": "ユーザー",
	"SEKITSUI_CLIENT_ID": "Sekitsui クライアントID",
	"SEKITSUI_PING": "Sekitsui Ping",
	"SEKITSUI_VERSION": "Sekitsui バージョン",
	"HEADER_SELECT_ACTION": "何をしたいですか？"
}