{
	"AYANA_VERSION": "아야나 버전",
	"AYANA_CORE_VERSION": "아야나 코어 버전",
	"INFO_CONTAINER": "컨테이너",
	"INFO_MEMORY": "메모리",
	"INFO_SERVER_REGION": "서버 지역",
	"INFO_SERVERS": "서버",
	"INFO_SHARD": "데이터 보관실",
	"INFO_STREAMS": "스트림",
	"INFO_UPTIME": "가동 시간",
	"INFO_USERS": "유저",
	"SEKITSUI_CLIENT_ID": "중앙 클라이언트 ID",
	"SEKITSUI_PING": "중앙 서버 응답 속도",
	"SEKITSUI_VERSION": "중앙 서버 버전",
	"HEADER_SELECT_ACTION": "무엇을 하고 싶으신가요?"
}